# Blender v2.79 (sub 0) OBJ File: ''
# www.blender.org
mtllib U.mtl
o Text_Text.004
v 2.061046 0.243409 -0.655746
v 2.054783 0.243409 -0.617773
v 2.044334 0.243409 -0.582544
v 2.029686 0.243409 -0.550241
v 2.010830 0.243409 -0.521049
v 1.987756 0.243409 -0.495153
v 1.960452 0.243409 -0.472736
v 1.928909 0.243409 -0.453982
v 1.893115 0.243409 -0.439075
v 1.853061 0.243409 -0.428199
v 1.808737 0.243409 -0.421539
v 1.760131 0.243409 -0.419278
v 1.724293 0.243409 -0.420979
v 1.689094 0.243409 -0.426139
v 1.655006 0.243409 -0.434840
v 1.622501 0.243409 -0.447167
v 1.592052 0.243409 -0.463202
v 1.564131 0.243409 -0.483028
v 1.539209 0.243409 -0.506729
v 1.517760 0.243409 -0.534389
v 1.500256 0.243409 -0.566090
v 1.487168 0.243409 -0.601917
v 1.478969 0.243409 -0.641952
v 1.476131 0.243409 -0.686278
v 1.476131 0.243409 -1.110278
v 1.574131 0.243409 -1.110278
v 1.574131 0.243409 -0.707278
v 1.574345 0.243409 -0.688940
v 1.575015 0.243409 -0.672324
v 1.576178 0.243409 -0.657278
v 1.577871 0.243409 -0.643648
v 1.580135 0.243409 -0.631283
v 1.583006 0.243409 -0.620028
v 1.586522 0.243409 -0.609732
v 1.590723 0.243409 -0.600241
v 1.595646 0.243409 -0.591403
v 1.601330 0.243409 -0.583065
v 1.607812 0.243409 -0.575074
v 1.615131 0.243409 -0.567278
v 1.625089 0.243409 -0.557944
v 1.635464 0.243409 -0.549440
v 1.646256 0.243409 -0.541762
v 1.657464 0.243409 -0.534908
v 1.669089 0.243409 -0.528872
v 1.681131 0.243409 -0.523653
v 1.693589 0.243409 -0.519246
v 1.706464 0.243409 -0.515648
v 1.719756 0.243409 -0.512856
v 1.733464 0.243409 -0.510866
v 1.747589 0.243409 -0.509674
v 1.762131 0.243409 -0.509278
v 1.780442 0.243409 -0.509768
v 1.797871 0.243409 -0.511199
v 1.814412 0.243409 -0.513512
v 1.830057 0.243409 -0.516648
v 1.844799 0.243409 -0.520548
v 1.858631 0.243409 -0.525153
v 1.871546 0.243409 -0.530403
v 1.883538 0.243409 -0.536241
v 1.894599 0.243409 -0.542606
v 1.904723 0.243409 -0.549440
v 1.913903 0.243409 -0.556684
v 1.922131 0.243409 -0.564278
v 1.930329 0.243409 -0.573340
v 1.937469 0.243409 -0.583023
v 1.943615 0.243409 -0.593325
v 1.948834 0.243409 -0.604241
v 1.953193 0.243409 -0.615768
v 1.956756 0.243409 -0.627903
v 1.959590 0.243409 -0.640642
v 1.961760 0.243409 -0.653982
v 1.963334 0.243409 -0.667919
v 1.964376 0.243409 -0.682449
v 1.964953 0.243409 -0.697570
v 1.965131 0.243409 -0.713278
v 1.965131 0.243409 -1.110278
v 2.063131 0.243409 -1.110278
v 2.063131 0.243409 -0.696278
v 2.061046 -0.220591 -0.655746
v 2.054783 -0.220591 -0.617773
v 2.044334 -0.220591 -0.582544
v 2.029686 -0.220591 -0.550241
v 2.010830 -0.220591 -0.521049
v 1.987756 -0.220591 -0.495153
v 1.960452 -0.220591 -0.472736
v 1.928909 -0.220591 -0.453982
v 1.893115 -0.220591 -0.439075
v 1.853061 -0.220591 -0.428199
v 1.808737 -0.220591 -0.421539
v 1.760131 -0.220591 -0.419278
v 1.724293 -0.220591 -0.420979
v 1.689094 -0.220591 -0.426139
v 1.655006 -0.220591 -0.434840
v 1.622501 -0.220591 -0.447167
v 1.592052 -0.220591 -0.463202
v 1.564131 -0.220591 -0.483028
v 1.539209 -0.220591 -0.506729
v 1.517760 -0.220591 -0.534389
v 1.500256 -0.220591 -0.566090
v 1.487168 -0.220591 -0.601917
v 1.478969 -0.220591 -0.641952
v 1.476131 -0.220591 -0.686278
v 1.476131 -0.220591 -1.110278
v 1.574131 -0.220591 -1.110278
v 1.574131 -0.220591 -0.707278
v 1.574345 -0.220591 -0.688940
v 1.575015 -0.220591 -0.672324
v 1.576178 -0.220591 -0.657278
v 1.577871 -0.220591 -0.643648
v 1.580135 -0.220591 -0.631283
v 1.583006 -0.220591 -0.620028
v 1.586522 -0.220591 -0.609732
v 1.590723 -0.220591 -0.600241
v 1.595646 -0.220591 -0.591403
v 1.601330 -0.220591 -0.583065
v 1.607812 -0.220591 -0.575074
v 1.615131 -0.220591 -0.567278
v 1.625089 -0.220591 -0.557944
v 1.635464 -0.220591 -0.549440
v 1.646256 -0.220591 -0.541762
v 1.657464 -0.220591 -0.534908
v 1.669089 -0.220591 -0.528872
v 1.681131 -0.220591 -0.523653
v 1.693589 -0.220591 -0.519246
v 1.706464 -0.220591 -0.515648
v 1.719756 -0.220591 -0.512856
v 1.733464 -0.220591 -0.510866
v 1.747589 -0.220591 -0.509674
v 1.762131 -0.220591 -0.509278
v 1.780442 -0.220591 -0.509768
v 1.797871 -0.220591 -0.511199
v 1.814412 -0.220591 -0.513512
v 1.830057 -0.220591 -0.516648
v 1.844799 -0.220591 -0.520548
v 1.858631 -0.220591 -0.525153
v 1.871546 -0.220591 -0.530403
v 1.883538 -0.220591 -0.536241
v 1.894599 -0.220591 -0.542606
v 1.904723 -0.220591 -0.549440
v 1.913903 -0.220591 -0.556684
v 1.922131 -0.220591 -0.564278
v 1.930329 -0.220591 -0.573340
v 1.937469 -0.220591 -0.583023
v 1.943615 -0.220591 -0.593325
v 1.948834 -0.220591 -0.604241
v 1.953193 -0.220591 -0.615768
v 1.956756 -0.220591 -0.627903
v 1.959590 -0.220591 -0.640642
v 1.961760 -0.220591 -0.653982
v 1.963334 -0.220591 -0.667919
v 1.964376 -0.220591 -0.682449
v 1.964953 -0.220591 -0.697570
v 1.965131 -0.220591 -0.713278
v 1.965131 -0.220591 -1.110278
v 2.063131 -0.220591 -1.110278
v 2.063131 -0.220591 -0.696278
v 2.061046 -0.220591 -0.655746
v 2.092911 -0.188591 -0.652310
v 2.054783 -0.220591 -0.617773
v 2.086031 -0.188591 -0.610592
v 2.044334 -0.220591 -0.582544
v 2.074387 -0.188591 -0.571333
v 2.029686 -0.220591 -0.550241
v 2.057852 -0.188591 -0.534868
v 2.010830 -0.220591 -0.521049
v 2.036368 -0.188591 -0.501608
v 1.987756 -0.220591 -0.495153
v 2.009989 -0.188591 -0.472003
v 1.960452 -0.220591 -0.472736
v 1.978886 -0.188591 -0.446467
v 1.928909 -0.220591 -0.453982
v 1.943309 -0.188591 -0.425315
v 1.893115 -0.220591 -0.439075
v 1.903503 -0.188591 -0.408737
v 1.853061 -0.220591 -0.428199
v 1.859653 -0.188591 -0.396831
v 1.808737 -0.220591 -0.421539
v 1.811866 -0.188591 -0.389650
v 1.760131 -0.220591 -0.419278
v 1.760116 -0.188591 -0.387243
v 1.724293 -0.220591 -0.420979
v 1.721206 -0.188591 -0.389090
v 1.689094 -0.220591 -0.426139
v 1.682799 -0.188591 -0.394720
v 1.655006 -0.220591 -0.434840
v 1.645345 -0.188591 -0.404280
v 1.622501 -0.220591 -0.447167
v 1.609324 -0.188591 -0.417940
v 1.592052 -0.220591 -0.463202
v 1.575260 -0.188591 -0.435879
v 1.564131 -0.220591 -0.483028
v 1.543737 -0.188591 -0.458262
v 1.539209 -0.220591 -0.506729
v 1.515404 -0.188591 -0.485208
v 1.517760 -0.220591 -0.534389
v 1.490949 -0.188591 -0.516744
v 1.500256 -0.220591 -0.566090
v 1.471047 -0.188591 -0.552787
v 1.487168 -0.220591 -0.601917
v 1.456295 -0.188591 -0.593168
v 1.478969 -0.220591 -0.641952
v 1.447176 -0.188591 -0.637699
v 1.476131 -0.220591 -0.686278
v 1.444131 -0.188591 -0.685255
v 1.476131 -0.220591 -1.110278
v 1.444131 -0.188591 -1.142278
v 1.574131 -0.220591 -1.110278
v 1.606131 -0.188591 -1.142278
v 1.574131 -0.220591 -0.707278
v 1.606131 -0.188591 -0.707465
v 1.574345 -0.220591 -0.688940
v 1.606338 -0.188591 -0.689772
v 1.575015 -0.220591 -0.672324
v 1.606965 -0.188591 -0.674202
v 1.576178 -0.220591 -0.657278
v 1.608025 -0.188591 -0.660486
v 1.577871 -0.220591 -0.643648
v 1.609514 -0.188591 -0.648506
v 1.580135 -0.220591 -0.631283
v 1.611414 -0.188591 -0.638126
v 1.583006 -0.220591 -0.620028
v 1.613699 -0.188591 -0.629169
v 1.586522 -0.220591 -0.609732
v 1.616352 -0.188591 -0.621402
v 1.590723 -0.220591 -0.600241
v 1.619392 -0.188591 -0.614533
v 1.595646 -0.220591 -0.591403
v 1.622900 -0.188591 -0.608235
v 1.601330 -0.220591 -0.583065
v 1.627021 -0.188591 -0.602190
v 1.607812 -0.220591 -0.575074
v 1.631934 -0.188591 -0.596132
v 1.615131 -0.220591 -0.567278
v 1.637761 -0.188591 -0.589926
v 1.625089 -0.220591 -0.557944
v 1.646197 -0.188591 -0.582019
v 1.635464 -0.220591 -0.549440
v 1.654905 -0.188591 -0.574881
v 1.646256 -0.220591 -0.541762
v 1.663900 -0.188591 -0.568482
v 1.657464 -0.220591 -0.534908
v 1.673204 -0.188591 -0.562792
v 1.669089 -0.220591 -0.528872
v 1.682841 -0.188591 -0.557788
v 1.681131 -0.220591 -0.523653
v 1.692843 -0.188591 -0.553453
v 1.693589 -0.220591 -0.519246
v 1.703242 -0.188591 -0.549775
v 1.706464 -0.220591 -0.515648
v 1.714068 -0.188591 -0.546749
v 1.719756 -0.220591 -0.512856
v 1.725349 -0.188591 -0.544379
v 1.733464 -0.220591 -0.510866
v 1.737111 -0.188591 -0.542672
v 1.747589 -0.220591 -0.509674
v 1.749372 -0.188591 -0.541638
v 1.762131 -0.220591 -0.509278
v 1.762139 -0.188591 -0.541290
v 1.780442 -0.220591 -0.509768
v 1.778703 -0.188591 -0.541733
v 1.797871 -0.220591 -0.511199
v 1.794343 -0.188591 -0.543017
v 1.814412 -0.220591 -0.513512
v 1.809047 -0.188591 -0.545073
v 1.830057 -0.220591 -0.516648
v 1.822813 -0.188591 -0.547833
v 1.844799 -0.220591 -0.520548
v 1.835644 -0.188591 -0.551227
v 1.858631 -0.220591 -0.525153
v 1.847540 -0.188591 -0.555187
v 1.871546 -0.220591 -0.530403
v 1.858503 -0.188591 -0.559644
v 1.883538 -0.220591 -0.536241
v 1.868537 -0.188591 -0.564529
v 1.894599 -0.220591 -0.542606
v 1.877646 -0.188591 -0.569770
v 1.904723 -0.220591 -0.549440
v 1.885834 -0.188591 -0.575297
v 1.913903 -0.220591 -0.556684
v 1.893108 -0.188591 -0.581038
v 1.922131 -0.220591 -0.564278
v 1.899368 -0.188591 -0.586815
v 1.930329 -0.220591 -0.573340
v 1.905524 -0.188591 -0.593620
v 1.937469 -0.220591 -0.583023
v 1.910787 -0.188591 -0.600758
v 1.943615 -0.220591 -0.593325
v 1.915380 -0.188591 -0.608457
v 1.948834 -0.220591 -0.604241
v 1.919381 -0.188591 -0.616824
v 1.953193 -0.220591 -0.615768
v 1.922831 -0.188591 -0.625949
v 1.956756 -0.220591 -0.627903
v 1.925751 -0.188591 -0.635894
v 1.959590 -0.220591 -0.640642
v 1.928153 -0.188591 -0.646691
v 1.961760 -0.220591 -0.653982
v 1.930050 -0.188591 -0.658349
v 1.963334 -0.220591 -0.667919
v 1.931463 -0.188591 -0.670860
v 1.964376 -0.220591 -0.682449
v 1.932420 -0.188591 -0.684205
v 1.964953 -0.220591 -0.697570
v 1.932960 -0.188591 -0.698361
v 1.965131 -0.220591 -0.713278
v 1.933131 -0.188591 -0.713459
v 1.965131 -0.220591 -1.110278
v 1.933131 -0.188591 -1.142278
v 2.063131 -0.220591 -1.110278
v 2.095131 -0.188591 -1.142278
v 2.063131 -0.220591 -0.696278
v 2.095131 -0.188591 -0.695455
v 2.092911 -0.188591 -0.652310
v 2.092911 0.211409 -0.652310
v 2.086031 -0.188591 -0.610592
v 2.086031 0.211409 -0.610592
v 2.074387 -0.188591 -0.571333
v 2.074387 0.211409 -0.571333
v 2.057852 -0.188591 -0.534868
v 2.057852 0.211409 -0.534868
v 2.036368 -0.188591 -0.501608
v 2.036368 0.211409 -0.501608
v 2.009989 -0.188591 -0.472003
v 2.009989 0.211409 -0.472003
v 1.978886 -0.188591 -0.446467
v 1.978886 0.211409 -0.446467
v 1.943309 -0.188591 -0.425315
v 1.943309 0.211409 -0.425315
v 1.903503 -0.188591 -0.408737
v 1.903503 0.211409 -0.408737
v 1.859653 -0.188591 -0.396831
v 1.859653 0.211409 -0.396831
v 1.811866 -0.188591 -0.389650
v 1.811866 0.211409 -0.389650
v 1.760116 -0.188591 -0.387243
v 1.760116 0.211409 -0.387243
v 1.721206 -0.188591 -0.389090
v 1.721206 0.211409 -0.389090
v 1.682799 -0.188591 -0.394720
v 1.682799 0.211409 -0.394720
v 1.645345 -0.188591 -0.404280
v 1.645345 0.211409 -0.404280
v 1.609324 -0.188591 -0.417940
v 1.609324 0.211409 -0.417940
v 1.575260 -0.188591 -0.435879
v 1.575260 0.211409 -0.435879
v 1.543737 -0.188591 -0.458262
v 1.543737 0.211409 -0.458262
v 1.515404 -0.188591 -0.485208
v 1.515404 0.211409 -0.485208
v 1.490949 -0.188591 -0.516744
v 1.490949 0.211409 -0.516744
v 1.471047 -0.188591 -0.552787
v 1.471047 0.211409 -0.552787
v 1.456295 -0.188591 -0.593168
v 1.456295 0.211409 -0.593168
v 1.447176 -0.188591 -0.637699
v 1.447176 0.211409 -0.637699
v 1.444131 -0.188591 -0.685255
v 1.444131 0.211409 -0.685255
v 1.444131 -0.188591 -1.142278
v 1.444131 0.211409 -1.142278
v 1.606131 -0.188591 -1.142278
v 1.606131 0.211409 -1.142278
v 1.606131 -0.188591 -0.707465
v 1.606131 0.211409 -0.707465
v 1.606338 -0.188591 -0.689772
v 1.606338 0.211409 -0.689772
v 1.606965 -0.188591 -0.674202
v 1.606965 0.211409 -0.674202
v 1.608025 -0.188591 -0.660486
v 1.608025 0.211409 -0.660486
v 1.609514 -0.188591 -0.648506
v 1.609514 0.211409 -0.648506
v 1.611414 -0.188591 -0.638126
v 1.611414 0.211409 -0.638126
v 1.613699 -0.188591 -0.629169
v 1.613699 0.211409 -0.629169
v 1.616352 -0.188591 -0.621402
v 1.616352 0.211409 -0.621402
v 1.619392 -0.188591 -0.614533
v 1.619392 0.211409 -0.614533
v 1.622900 -0.188591 -0.608235
v 1.622900 0.211409 -0.608235
v 1.627021 -0.188591 -0.602190
v 1.627021 0.211409 -0.602190
v 1.631934 -0.188591 -0.596132
v 1.631934 0.211409 -0.596132
v 1.637761 -0.188591 -0.589926
v 1.637761 0.211409 -0.589926
v 1.646197 -0.188591 -0.582019
v 1.646197 0.211409 -0.582019
v 1.654905 -0.188591 -0.574881
v 1.654905 0.211409 -0.574881
v 1.663900 -0.188591 -0.568482
v 1.663900 0.211409 -0.568482
v 1.673204 -0.188591 -0.562792
v 1.673204 0.211409 -0.562792
v 1.682841 -0.188591 -0.557788
v 1.682841 0.211409 -0.557788
v 1.692843 -0.188591 -0.553453
v 1.692843 0.211409 -0.553453
v 1.703242 -0.188591 -0.549775
v 1.703242 0.211409 -0.549775
v 1.714068 -0.188591 -0.546749
v 1.714068 0.211409 -0.546749
v 1.725349 -0.188591 -0.544379
v 1.725349 0.211409 -0.544379
v 1.737111 -0.188591 -0.542672
v 1.737111 0.211409 -0.542672
v 1.749372 -0.188591 -0.541638
v 1.749372 0.211409 -0.541638
v 1.762139 -0.188591 -0.541290
v 1.762139 0.211409 -0.541290
v 1.778703 -0.188591 -0.541733
v 1.778703 0.211409 -0.541733
v 1.794343 -0.188591 -0.543017
v 1.794343 0.211409 -0.543017
v 1.809047 -0.188591 -0.545073
v 1.809047 0.211409 -0.545073
v 1.822813 -0.188591 -0.547833
v 1.822813 0.211409 -0.547833
v 1.835644 -0.188591 -0.551227
v 1.835644 0.211409 -0.551227
v 1.847540 -0.188591 -0.555187
v 1.847540 0.211409 -0.555187
v 1.858503 -0.188591 -0.559644
v 1.858503 0.211409 -0.559644
v 1.868537 -0.188591 -0.564529
v 1.868537 0.211409 -0.564529
v 1.877646 -0.188591 -0.569770
v 1.877646 0.211409 -0.569770
v 1.885834 -0.188591 -0.575297
v 1.885834 0.211409 -0.575297
v 1.893108 -0.188591 -0.581038
v 1.893108 0.211409 -0.581038
v 1.899368 -0.188591 -0.586815
v 1.899368 0.211409 -0.586815
v 1.905524 -0.188591 -0.593620
v 1.905524 0.211409 -0.593620
v 1.910787 -0.188591 -0.600758
v 1.910787 0.211409 -0.600758
v 1.915380 -0.188591 -0.608457
v 1.915380 0.211409 -0.608457
v 1.919381 -0.188591 -0.616824
v 1.919381 0.211409 -0.616824
v 1.922831 -0.188591 -0.625949
v 1.922831 0.211409 -0.625949
v 1.925751 -0.188591 -0.635894
v 1.925751 0.211409 -0.635894
v 1.928153 -0.188591 -0.646691
v 1.928153 0.211409 -0.646691
v 1.930050 -0.188591 -0.658349
v 1.930050 0.211409 -0.658349
v 1.931463 -0.188591 -0.670860
v 1.931463 0.211409 -0.670860
v 1.932420 -0.188591 -0.684205
v 1.932420 0.211409 -0.684205
v 1.932960 -0.188591 -0.698361
v 1.932960 0.211409 -0.698361
v 1.933131 -0.188591 -0.713459
v 1.933131 0.211409 -0.713459
v 1.933131 -0.188591 -1.142278
v 1.933131 0.211409 -1.142278
v 2.095131 -0.188591 -1.142278
v 2.095131 0.211409 -1.142278
v 2.095131 -0.188591 -0.695455
v 2.095131 0.211409 -0.695455
v 2.092911 0.211409 -0.652310
v 2.061046 0.243409 -0.655746
v 2.086031 0.211409 -0.610592
v 2.054783 0.243409 -0.617773
v 2.074387 0.211409 -0.571333
v 2.044334 0.243409 -0.582544
v 2.057852 0.211409 -0.534868
v 2.029686 0.243409 -0.550241
v 2.036368 0.211409 -0.501608
v 2.010830 0.243409 -0.521049
v 2.009989 0.211409 -0.472003
v 1.987756 0.243409 -0.495153
v 1.978886 0.211409 -0.446467
v 1.960452 0.243409 -0.472736
v 1.943309 0.211409 -0.425315
v 1.928909 0.243409 -0.453982
v 1.903503 0.211409 -0.408737
v 1.893115 0.243409 -0.439075
v 1.859653 0.211409 -0.396831
v 1.853061 0.243409 -0.428199
v 1.811866 0.211409 -0.389650
v 1.808737 0.243409 -0.421539
v 1.760116 0.211409 -0.387243
v 1.760131 0.243409 -0.419278
v 1.721206 0.211409 -0.389090
v 1.724293 0.243409 -0.420979
v 1.682799 0.211409 -0.394720
v 1.689094 0.243409 -0.426139
v 1.645345 0.211409 -0.404280
v 1.655006 0.243409 -0.434840
v 1.609324 0.211409 -0.417940
v 1.622501 0.243409 -0.447167
v 1.575260 0.211409 -0.435879
v 1.592052 0.243409 -0.463202
v 1.543737 0.211409 -0.458262
v 1.564131 0.243409 -0.483028
v 1.515404 0.211409 -0.485208
v 1.539209 0.243409 -0.506729
v 1.490949 0.211409 -0.516744
v 1.517760 0.243409 -0.534389
v 1.471047 0.211409 -0.552787
v 1.500256 0.243409 -0.566090
v 1.456295 0.211409 -0.593168
v 1.487168 0.243409 -0.601917
v 1.447176 0.211409 -0.637699
v 1.478969 0.243409 -0.641952
v 1.444131 0.211409 -0.685255
v 1.476131 0.243409 -0.686278
v 1.444131 0.211409 -1.142278
v 1.476131 0.243409 -1.110278
v 1.606131 0.211409 -1.142278
v 1.574131 0.243409 -1.110278
v 1.606131 0.211409 -0.707465
v 1.574131 0.243409 -0.707278
v 1.606338 0.211409 -0.689772
v 1.574345 0.243409 -0.688940
v 1.606965 0.211409 -0.674202
v 1.575015 0.243409 -0.672324
v 1.608025 0.211409 -0.660486
v 1.576178 0.243409 -0.657278
v 1.609514 0.211409 -0.648506
v 1.577871 0.243409 -0.643648
v 1.611414 0.211409 -0.638126
v 1.580135 0.243409 -0.631283
v 1.613699 0.211409 -0.629169
v 1.583006 0.243409 -0.620028
v 1.616352 0.211409 -0.621402
v 1.586522 0.243409 -0.609732
v 1.619392 0.211409 -0.614533
v 1.590723 0.243409 -0.600241
v 1.622900 0.211409 -0.608235
v 1.595646 0.243409 -0.591403
v 1.627021 0.211409 -0.602190
v 1.601330 0.243409 -0.583065
v 1.631934 0.211409 -0.596132
v 1.607812 0.243409 -0.575074
v 1.637761 0.211409 -0.589926
v 1.615131 0.243409 -0.567278
v 1.646197 0.211409 -0.582019
v 1.625089 0.243409 -0.557944
v 1.654905 0.211409 -0.574881
v 1.635464 0.243409 -0.549440
v 1.663900 0.211409 -0.568482
v 1.646256 0.243409 -0.541762
v 1.673204 0.211409 -0.562792
v 1.657464 0.243409 -0.534908
v 1.682841 0.211409 -0.557788
v 1.669089 0.243409 -0.528872
v 1.692843 0.211409 -0.553453
v 1.681131 0.243409 -0.523653
v 1.703242 0.211409 -0.549775
v 1.693589 0.243409 -0.519246
v 1.714068 0.211409 -0.546749
v 1.706464 0.243409 -0.515648
v 1.725349 0.211409 -0.544379
v 1.719756 0.243409 -0.512856
v 1.737111 0.211409 -0.542672
v 1.733464 0.243409 -0.510866
v 1.749372 0.211409 -0.541638
v 1.747589 0.243409 -0.509674
v 1.762139 0.211409 -0.541290
v 1.762131 0.243409 -0.509278
v 1.778703 0.211409 -0.541733
v 1.780442 0.243409 -0.509768
v 1.794343 0.211409 -0.543017
v 1.797871 0.243409 -0.511199
v 1.809047 0.211409 -0.545073
v 1.814412 0.243409 -0.513512
v 1.822813 0.211409 -0.547833
v 1.830057 0.243409 -0.516648
v 1.835644 0.211409 -0.551227
v 1.844799 0.243409 -0.520548
v 1.847540 0.211409 -0.555187
v 1.858631 0.243409 -0.525153
v 1.858503 0.211409 -0.559644
v 1.871546 0.243409 -0.530403
v 1.868537 0.211409 -0.564529
v 1.883538 0.243409 -0.536241
v 1.877646 0.211409 -0.569770
v 1.894599 0.243409 -0.542606
v 1.885834 0.211409 -0.575297
v 1.904723 0.243409 -0.549440
v 1.893108 0.211409 -0.581038
v 1.913903 0.243409 -0.556684
v 1.899368 0.211409 -0.586815
v 1.922131 0.243409 -0.564278
v 1.905524 0.211409 -0.593620
v 1.930329 0.243409 -0.573340
v 1.910787 0.211409 -0.600758
v 1.937469 0.243409 -0.583023
v 1.915380 0.211409 -0.608457
v 1.943615 0.243409 -0.593325
v 1.919381 0.211409 -0.616824
v 1.948834 0.243409 -0.604241
v 1.922831 0.211409 -0.625949
v 1.953193 0.243409 -0.615768
v 1.925751 0.211409 -0.635894
v 1.956756 0.243409 -0.627903
v 1.928153 0.211409 -0.646691
v 1.959590 0.243409 -0.640642
v 1.930050 0.211409 -0.658349
v 1.961760 0.243409 -0.653982
v 1.931463 0.211409 -0.670860
v 1.963334 0.243409 -0.667919
v 1.932420 0.211409 -0.684205
v 1.964376 0.243409 -0.682449
v 1.932960 0.211409 -0.698361
v 1.964953 0.243409 -0.697570
v 1.933131 0.211409 -0.713459
v 1.965131 0.243409 -0.713278
v 1.933131 0.211409 -1.142278
v 1.965131 0.243409 -1.110278
v 2.095131 0.211409 -1.142278
v 2.063131 0.243409 -1.110278
v 2.095131 0.211409 -0.695455
v 2.063131 0.243409 -0.696278
vn 0.0000 1.0000 0.0000
vn 0.0000 -1.0000 0.0000
vn 0.0000 -1.0000 0.0001
vn 0.7025 -0.7076 0.0757
vn 0.6885 -0.7078 0.1582
vn 0.6617 -0.7079 0.2468
vn 0.6198 -0.7081 0.3383
vn 0.5618 -0.7082 0.4277
vn 0.4890 -0.7082 0.5092
vn 0.4056 -0.7081 0.5780
vn 0.3170 -0.7080 0.6311
vn 0.2288 -0.7078 0.6683
vn 0.1453 -0.7077 0.6914
vn 0.0690 -0.7076 0.7032
vn -0.0003 -0.7075 0.7067
vn -0.0681 -0.7075 0.7034
vn -0.1388 -0.7076 0.6928
vn -0.2130 -0.7077 0.6737
vn -0.2904 -0.7078 0.6440
vn -0.3698 -0.7079 0.6017
vn -0.4489 -0.7080 0.5452
vn -0.5238 -0.7081 0.4735
vn -0.5898 -0.7082 0.3881
vn -0.6425 -0.7082 0.2926
vn -0.6794 -0.7081 0.1925
vn -0.7000 -0.7079 0.0936
vn -0.7066 -0.7073 0.0226
vn -0.4082 -0.8165 -0.4082
vn 0.4082 -0.8165 -0.4082
vn 0.7071 -0.7071 -0.0041
vn 0.7068 -0.7071 -0.0184
vn 0.7058 -0.7071 -0.0415
vn 0.7034 -0.7072 -0.0708
vn 0.6988 -0.7072 -0.1073
vn 0.6905 -0.7073 -0.1511
vn 0.6774 -0.7074 -0.2017
vn 0.6582 -0.7074 -0.2575
vn 0.6325 -0.7074 -0.3153
vn 0.6013 -0.7074 -0.3713
vn 0.5669 -0.7074 -0.4220
vn 0.5325 -0.7073 -0.4649
vn 0.4996 -0.7073 -0.5000
vn 0.4660 -0.7073 -0.5315
vn 0.4292 -0.7073 -0.5617
vn 0.3895 -0.7073 -0.5899
vn 0.3475 -0.7073 -0.6156
vn 0.3036 -0.7073 -0.6384
vn 0.2586 -0.7073 -0.6579
vn 0.2131 -0.7073 -0.6740
vn 0.1679 -0.7073 -0.6867
vn 0.1235 -0.7073 -0.6960
vn 0.0805 -0.7073 -0.7023
vn 0.0393 -0.7072 -0.7059
vn 0.0002 -0.7072 -0.7070
vn -0.0384 -0.7072 -0.7059
vn -0.0779 -0.7072 -0.7026
vn -0.1185 -0.7072 -0.6970
vn -0.1599 -0.7073 -0.6886
vn -0.2021 -0.7073 -0.6774
vn -0.2449 -0.7073 -0.6631
vn -0.2880 -0.7073 -0.6456
vn -0.3312 -0.7073 -0.6245
vn -0.3742 -0.7073 -0.5997
vn -0.4169 -0.7073 -0.5708
vn -0.4590 -0.7074 -0.5375
vn -0.5022 -0.7074 -0.4972
vn -0.5471 -0.7075 -0.4473
vn -0.5885 -0.7075 -0.3912
vn -0.6229 -0.7075 -0.3338
vn -0.6500 -0.7074 -0.2777
vn -0.6702 -0.7074 -0.2247
vn -0.6845 -0.7073 -0.1764
vn -0.6942 -0.7072 -0.1336
vn -0.7004 -0.7072 -0.0964
vn -0.7040 -0.7072 -0.0649
vn -0.7060 -0.7071 -0.0388
vn -0.7068 -0.7071 -0.0175
vn -0.7071 -0.7071 -0.0040
vn 0.7067 -0.7072 0.0182
vn 0.9942 0.0000 0.1072
vn 0.9746 0.0000 0.2240
vn 0.9369 0.0000 0.3495
vn 0.8777 0.0000 0.4791
vn 0.7956 0.0000 0.6057
vn 0.6926 0.0000 0.7212
vn 0.5744 0.0000 0.8185
vn 0.4489 0.0000 0.8936
vn 0.3239 0.0000 0.9461
vn 0.2056 0.0000 0.9786
vn 0.0976 0.0000 0.9952
vn -0.0005 0.0000 1.0000
vn -0.0963 0.0000 0.9953
vn -0.1964 0.0000 0.9805
vn -0.3014 0.0000 0.9535
vn -0.4110 0.0000 0.9116
vn -0.5236 0.0000 0.8520
vn -0.6357 0.0000 0.7719
vn -0.7418 0.0000 0.6706
vn -0.8353 0.0000 0.5497
vn -0.9100 0.0000 0.4145
vn -0.9621 0.0000 0.2726
vn -0.9911 0.0000 0.1326
vn -0.9995 0.0000 0.0320
vn -0.7071 0.0000 -0.7071
vn 0.7071 0.0000 -0.7071
vn 1.0000 0.0000 -0.0058
vn 0.9996 0.0000 -0.0260
vn 0.9983 0.0000 -0.0587
vn 0.9950 0.0000 -0.1002
vn 0.9884 0.0000 -0.1517
vn 0.9769 0.0000 -0.2137
vn 0.9584 0.0000 -0.2854
vn 0.9312 0.0000 -0.3643
vn 0.8949 0.0000 -0.4462
vn 0.8508 0.0000 -0.5254
vn 0.8021 0.0000 -0.5971
vn 0.7533 0.0000 -0.6576
vn 0.7068 0.0000 -0.7074
vn 0.6592 0.0000 -0.7519
vn 0.6072 0.0000 -0.7945
vn 0.5510 0.0000 -0.8345
vn 0.4915 0.0000 -0.8708
vn 0.4295 0.0000 -0.9030
vn 0.3658 0.0000 -0.9307
vn 0.3015 0.0000 -0.9535
vn 0.2375 0.0000 -0.9714
vn 0.1747 0.0000 -0.9846
vn 0.1139 0.0000 -0.9935
vn 0.0557 0.0000 -0.9984
vn 0.0002 0.0000 -1.0000
vn -0.0543 0.0000 -0.9985
vn -0.1102 0.0000 -0.9939
vn -0.1676 0.0000 -0.9858
vn -0.2262 0.0000 -0.9741
vn -0.2859 0.0000 -0.9582
vn -0.3464 0.0000 -0.9381
vn -0.4074 0.0000 -0.9132
vn -0.4685 0.0000 -0.8834
vn -0.5294 0.0000 -0.8483
vn -0.5899 0.0000 -0.8075
vn -0.6493 0.0000 -0.7605
vn -0.7106 0.0000 -0.7036
vn -0.7742 0.0000 -0.6329
vn -0.8328 0.0000 -0.5535
vn -0.8814 0.0000 -0.4724
vn -0.9196 0.0000 -0.3928
vn -0.9481 0.0000 -0.3179
vn -0.9684 0.0000 -0.2495
vn -0.9820 0.0000 -0.1889
vn -0.9906 0.0000 -0.1364
vn -0.9958 0.0000 -0.0919
vn -0.9985 0.0000 -0.0548
vn -0.9997 0.0000 -0.0247
vn -1.0000 0.0000 -0.0056
vn 0.9997 0.0000 0.0257
vn 0.7025 0.7076 0.0757
vn 0.6885 0.7078 0.1582
vn 0.6617 0.7079 0.2468
vn 0.6198 0.7081 0.3383
vn 0.5618 0.7082 0.4277
vn 0.4890 0.7082 0.5092
vn 0.4056 0.7081 0.5780
vn 0.3170 0.7080 0.6311
vn 0.2288 0.7078 0.6683
vn 0.1453 0.7077 0.6914
vn 0.0690 0.7076 0.7032
vn -0.0003 0.7075 0.7067
vn -0.0681 0.7075 0.7034
vn -0.1388 0.7076 0.6928
vn -0.2130 0.7077 0.6737
vn -0.2904 0.7078 0.6440
vn -0.3698 0.7079 0.6017
vn -0.4489 0.7080 0.5452
vn -0.5238 0.7081 0.4735
vn -0.5898 0.7082 0.3881
vn -0.6425 0.7082 0.2926
vn -0.6794 0.7081 0.1925
vn -0.7000 0.7079 0.0936
vn -0.7066 0.7073 0.0226
vn -0.4082 0.8165 -0.4082
vn 0.4082 0.8165 -0.4082
vn 0.7071 0.7071 -0.0041
vn 0.7068 0.7071 -0.0184
vn 0.7058 0.7071 -0.0415
vn 0.7035 0.7072 -0.0708
vn 0.6988 0.7072 -0.1073
vn 0.6905 0.7073 -0.1511
vn 0.6774 0.7074 -0.2017
vn 0.6582 0.7074 -0.2575
vn 0.6325 0.7074 -0.3153
vn 0.6013 0.7074 -0.3713
vn 0.5669 0.7074 -0.4220
vn 0.5325 0.7073 -0.4649
vn 0.4996 0.7073 -0.5000
vn 0.4660 0.7073 -0.5315
vn 0.4292 0.7073 -0.5617
vn 0.3895 0.7073 -0.5899
vn 0.3475 0.7073 -0.6156
vn 0.3036 0.7073 -0.6384
vn 0.2586 0.7073 -0.6579
vn 0.2131 0.7073 -0.6740
vn 0.1679 0.7073 -0.6867
vn 0.1235 0.7073 -0.6960
vn 0.0805 0.7073 -0.7023
vn 0.0393 0.7072 -0.7059
vn 0.0002 0.7072 -0.7070
vn -0.0384 0.7072 -0.7059
vn -0.0779 0.7072 -0.7026
vn -0.1185 0.7072 -0.6970
vn -0.1599 0.7073 -0.6886
vn -0.2021 0.7073 -0.6774
vn -0.2449 0.7073 -0.6631
vn -0.2880 0.7073 -0.6456
vn -0.3312 0.7073 -0.6245
vn -0.3742 0.7073 -0.5997
vn -0.4169 0.7073 -0.5708
vn -0.4590 0.7074 -0.5375
vn -0.5022 0.7074 -0.4972
vn -0.5471 0.7075 -0.4473
vn -0.5885 0.7075 -0.3912
vn -0.6229 0.7075 -0.3338
vn -0.6500 0.7074 -0.2777
vn -0.6702 0.7074 -0.2247
vn -0.6845 0.7073 -0.1764
vn -0.6942 0.7072 -0.1336
vn -0.7004 0.7072 -0.0964
vn -0.7040 0.7072 -0.0649
vn -0.7060 0.7071 -0.0388
vn -0.7068 0.7071 -0.0175
vn -0.7071 0.7071 -0.0040
vn 0.7067 0.7072 0.0182
usemtl None
s off
f 24//1 26//1 25//1
f 24//1 27//1 26//1
f 75//1 77//1 76//1
f 75//1 78//1 77//1
f 74//1 78//1 75//1
f 24//1 28//1 27//1
f 73//1 78//1 74//1
f 73//1 1//1 78//1
f 24//1 29//1 28//1
f 23//1 29//1 24//1
f 72//1 1//1 73//1
f 23//1 30//1 29//1
f 71//1 1//1 72//1
f 23//1 31//1 30//1
f 71//1 2//1 1//1
f 70//1 2//1 71//1
f 23//1 32//1 31//1
f 22//1 32//1 23//1
f 69//1 2//1 70//1
f 22//1 33//1 32//1
f 68//1 2//1 69//1
f 22//1 34//1 33//1
f 68//1 3//1 2//1
f 67//1 3//1 68//1
f 22//1 35//1 34//1
f 66//1 3//1 67//1
f 21//1 35//1 22//1
f 21//1 36//1 35//1
f 65//1 3//1 66//1
f 21//1 37//1 36//1
f 21//1 38//1 37//1
f 64//1 3//1 65//1
f 64//1 4//1 3//1
f 21//1 39//1 38//1
f 63//1 4//1 64//1
f 21//1 40//1 39//1
f 20//1 40//1 21//1
f 62//1 4//1 63//1
f 20//1 41//1 40//1
f 61//1 4//1 62//1
f 61//1 5//1 4//1
f 20//1 42//1 41//1
f 60//1 5//1 61//1
f 59//1 5//1 60//1
f 20//1 43//1 42//1
f 58//1 5//1 59//1
f 20//1 44//1 43//1
f 19//1 44//1 20//1
f 57//1 5//1 58//1
f 19//1 45//1 44//1
f 56//1 5//1 57//1
f 19//1 46//1 45//1
f 56//1 6//1 5//1
f 55//1 6//1 56//1
f 19//1 47//1 46//1
f 54//1 6//1 55//1
f 19//1 48//1 47//1
f 53//1 6//1 54//1
f 19//1 49//1 48//1
f 52//1 6//1 53//1
f 19//1 50//1 49//1
f 51//1 6//1 52//1
f 19//1 51//1 50//1
f 19//1 6//1 51//1
f 18//1 6//1 19//1
f 18//1 7//1 6//1
f 17//1 7//1 18//1
f 17//1 8//1 7//1
f 16//1 8//1 17//1
f 16//1 9//1 8//1
f 15//1 9//1 16//1
f 15//1 10//1 9//1
f 14//1 10//1 15//1
f 14//1 11//1 10//1
f 13//1 11//1 14//1
f 13//1 12//1 11//1
f 104//2 102//2 103//2
f 105//2 102//2 104//2
f 155//2 153//2 154//2
f 156//2 153//2 155//2
f 156//2 152//2 153//2
f 106//2 102//2 105//2
f 156//2 151//2 152//2
f 79//2 151//2 156//2
f 107//2 102//2 106//2
f 107//2 101//2 102//2
f 79//2 150//2 151//2
f 108//2 101//2 107//2
f 79//2 149//2 150//2
f 109//2 101//2 108//2
f 80//2 149//2 79//2
f 80//2 148//2 149//2
f 110//2 101//2 109//2
f 110//2 100//2 101//2
f 80//2 147//2 148//2
f 111//2 100//2 110//2
f 80//2 146//2 147//2
f 112//2 100//2 111//2
f 81//2 146//2 80//2
f 81//2 145//2 146//2
f 113//2 100//2 112//2
f 81//2 144//2 145//2
f 113//2 99//2 100//2
f 114//2 99//2 113//2
f 81//2 143//2 144//2
f 115//2 99//2 114//2
f 116//2 99//2 115//2
f 81//2 142//2 143//2
f 82//2 142//2 81//2
f 117//2 99//2 116//2
f 82//2 141//2 142//2
f 118//2 99//2 117//2
f 118//2 98//2 99//2
f 82//2 140//2 141//2
f 119//2 98//2 118//2
f 82//2 139//2 140//2
f 83//2 139//2 82//2
f 120//2 98//2 119//2
f 83//2 138//2 139//2
f 83//2 137//2 138//2
f 121//2 98//2 120//2
f 83//2 136//2 137//2
f 122//2 98//2 121//2
f 122//2 97//2 98//2
f 83//2 135//2 136//2
f 123//2 97//2 122//2
f 83//2 134//2 135//2
f 124//2 97//2 123//2
f 84//2 134//2 83//2
f 84//2 133//2 134//2
f 125//2 97//2 124//2
f 84//2 132//2 133//2
f 126//2 97//2 125//2
f 84//2 131//2 132//2
f 127//2 97//2 126//2
f 84//2 130//2 131//2
f 128//2 97//2 127//2
f 84//2 129//2 130//2
f 129//3 97//3 128//3
f 84//2 97//2 129//2
f 84//2 96//2 97//2
f 85//2 96//2 84//2
f 85//2 95//2 96//2
f 86//2 95//2 85//2
f 86//2 94//2 95//2
f 87//2 94//2 86//2
f 87//2 93//2 94//2
f 88//2 93//2 87//2
f 88//2 92//2 93//2
f 89//2 92//2 88//2
f 89//2 91//2 92//2
f 90//2 91//2 89//2
s 1
f 158//4 160//5 159//5 157//4
f 160//5 162//6 161//6 159//5
f 162//6 164//7 163//7 161//6
f 164//7 166//8 165//8 163//7
f 166//8 168//9 167//9 165//8
f 168//9 170//10 169//10 167//9
f 170//10 172//11 171//11 169//10
f 172//11 174//12 173//12 171//11
f 174//12 176//13 175//13 173//12
f 176//13 178//14 177//14 175//13
f 178//14 180//15 179//15 177//14
f 180//15 182//16 181//16 179//15
f 182//16 184//17 183//17 181//16
f 184//17 186//18 185//18 183//17
f 186//18 188//19 187//19 185//18
f 188//19 190//20 189//20 187//19
f 190//20 192//21 191//21 189//20
f 192//21 194//22 193//22 191//21
f 194//22 196//23 195//23 193//22
f 196//23 198//24 197//24 195//23
f 198//24 200//25 199//25 197//24
f 200//25 202//26 201//26 199//25
f 202//26 204//27 203//27 201//26
f 204//27 206//28 205//28 203//27
f 206//28 208//29 207//29 205//28
f 208//29 210//30 209//30 207//29
f 210//30 212//31 211//31 209//30
f 212//31 214//32 213//32 211//31
f 214//32 216//33 215//33 213//32
f 216//33 218//34 217//34 215//33
f 218//34 220//35 219//35 217//34
f 220//35 222//36 221//36 219//35
f 222//36 224//37 223//37 221//36
f 224//37 226//38 225//38 223//37
f 226//38 228//39 227//39 225//38
f 228//39 230//40 229//40 227//39
f 230//40 232//41 231//41 229//40
f 232//41 234//42 233//42 231//41
f 234//42 236//43 235//43 233//42
f 236//43 238//44 237//44 235//43
f 238//44 240//45 239//45 237//44
f 240//45 242//46 241//46 239//45
f 242//46 244//47 243//47 241//46
f 244//47 246//48 245//48 243//47
f 246//48 248//49 247//49 245//48
f 248//49 250//50 249//50 247//49
f 250//50 252//51 251//51 249//50
f 252//51 254//52 253//52 251//51
f 254//52 256//53 255//53 253//52
f 256//53 258//54 257//54 255//53
f 258//54 260//55 259//55 257//54
f 260//55 262//56 261//56 259//55
f 262//56 264//57 263//57 261//56
f 264//57 266//58 265//58 263//57
f 266//58 268//59 267//59 265//58
f 268//59 270//60 269//60 267//59
f 270//60 272//61 271//61 269//60
f 272//61 274//62 273//62 271//61
f 274//62 276//63 275//63 273//62
f 276//63 278//64 277//64 275//63
f 278//64 280//65 279//65 277//64
f 280//65 282//66 281//66 279//65
f 282//66 284//67 283//67 281//66
f 284//67 286//68 285//68 283//67
f 286//68 288//69 287//69 285//68
f 288//69 290//70 289//70 287//69
f 290//70 292//71 291//71 289//70
f 292//71 294//72 293//72 291//71
f 294//72 296//73 295//73 293//72
f 296//73 298//74 297//74 295//73
f 298//74 300//75 299//75 297//74
f 300//75 302//76 301//76 299//75
f 302//76 304//77 303//77 301//76
f 304//77 306//78 305//78 303//77
f 306//78 308//28 307//28 305//78
f 308//28 310//29 309//29 307//28
f 310//29 312//79 311//79 309//29
f 312//79 158//4 157//4 311//79
f 314//80 316//81 315//81 313//80
f 316//81 318//82 317//82 315//81
f 318//82 320//83 319//83 317//82
f 320//83 322//84 321//84 319//83
f 322//84 324//85 323//85 321//84
f 324//85 326//86 325//86 323//85
f 326//86 328//87 327//87 325//86
f 328//87 330//88 329//88 327//87
f 330//88 332//89 331//89 329//88
f 332//89 334//90 333//90 331//89
f 334//90 336//91 335//91 333//90
f 336//91 338//92 337//92 335//91
f 338//92 340//93 339//93 337//92
f 340//93 342//94 341//94 339//93
f 342//94 344//95 343//95 341//94
f 344//95 346//96 345//96 343//95
f 346//96 348//97 347//97 345//96
f 348//97 350//98 349//98 347//97
f 350//98 352//99 351//99 349//98
f 352//99 354//100 353//100 351//99
f 354//100 356//101 355//101 353//100
f 356//101 358//102 357//102 355//101
f 358//102 360//103 359//103 357//102
f 360//103 362//104 361//104 359//103
f 362//104 364//105 363//105 361//104
f 364//105 366//106 365//106 363//105
f 366//106 368//107 367//107 365//106
f 368//107 370//108 369//108 367//107
f 370//108 372//109 371//109 369//108
f 372//109 374//110 373//110 371//109
f 374//110 376//111 375//111 373//110
f 376//111 378//112 377//112 375//111
f 378//112 380//113 379//113 377//112
f 380//113 382//114 381//114 379//113
f 382//114 384//115 383//115 381//114
f 384//115 386//116 385//116 383//115
f 386//116 388//117 387//117 385//116
f 388//117 390//118 389//118 387//117
f 390//118 392//119 391//119 389//118
f 392//119 394//120 393//120 391//119
f 394//120 396//121 395//121 393//120
f 396//121 398//122 397//122 395//121
f 398//122 400//123 399//123 397//122
f 400//123 402//124 401//124 399//123
f 402//124 404//125 403//125 401//124
f 404//125 406//126 405//126 403//125
f 406//126 408//127 407//127 405//126
f 408//127 410//128 409//128 407//127
f 410//128 412//129 411//129 409//128
f 412//129 414//130 413//130 411//129
f 414//130 416//131 415//131 413//130
f 416//131 418//132 417//132 415//131
f 418//132 420//133 419//133 417//132
f 420//133 422//134 421//134 419//133
f 422//134 424//135 423//135 421//134
f 424//135 426//136 425//136 423//135
f 426//136 428//137 427//137 425//136
f 428//137 430//138 429//138 427//137
f 430//138 432//139 431//139 429//138
f 432//139 434//140 433//140 431//139
f 434//140 436//141 435//141 433//140
f 436//141 438//142 437//142 435//141
f 438//142 440//143 439//143 437//142
f 440//143 442//144 441//144 439//143
f 442//144 444//145 443//145 441//144
f 444//145 446//146 445//146 443//145
f 446//146 448//147 447//147 445//146
f 448//147 450//148 449//148 447//147
f 450//148 452//149 451//149 449//148
f 452//149 454//150 453//150 451//149
f 454//150 456//151 455//151 453//150
f 456//151 458//152 457//152 455//151
f 458//152 460//153 459//153 457//152
f 460//153 462//154 461//154 459//153
f 462//154 464//104 463//104 461//154
f 464//104 466//105 465//105 463//104
f 466//105 468//155 467//155 465//105
f 468//155 314//80 313//80 467//155
f 470//156 472//157 471//157 469//156
f 472//157 474//158 473//158 471//157
f 474//158 476//159 475//159 473//158
f 476//159 478//160 477//160 475//159
f 478//160 480//161 479//161 477//160
f 480//161 482//162 481//162 479//161
f 482//162 484//163 483//163 481//162
f 484//163 486//164 485//164 483//163
f 486//164 488//165 487//165 485//164
f 488//165 490//166 489//166 487//165
f 490//166 492//167 491//167 489//166
f 492//167 494//168 493//168 491//167
f 494//168 496//169 495//169 493//168
f 496//169 498//170 497//170 495//169
f 498//170 500//171 499//171 497//170
f 500//171 502//172 501//172 499//171
f 502//172 504//173 503//173 501//172
f 504//173 506//174 505//174 503//173
f 506//174 508//175 507//175 505//174
f 508//175 510//176 509//176 507//175
f 510//176 512//177 511//177 509//176
f 512//177 514//178 513//178 511//177
f 514//178 516//179 515//179 513//178
f 516//179 518//180 517//180 515//179
f 518//180 520//181 519//181 517//180
f 520//181 522//182 521//182 519//181
f 522//182 524//183 523//183 521//182
f 524//183 526//184 525//184 523//183
f 526//184 528//185 527//185 525//184
f 528//185 530//186 529//186 527//185
f 530//186 532//187 531//187 529//186
f 532//187 534//188 533//188 531//187
f 534//188 536//189 535//189 533//188
f 536//189 538//190 537//190 535//189
f 538//190 540//191 539//191 537//190
f 540//191 542//192 541//192 539//191
f 542//192 544//193 543//193 541//192
f 544//193 546//194 545//194 543//193
f 546//194 548//195 547//195 545//194
f 548//195 550//196 549//196 547//195
f 550//196 552//197 551//197 549//196
f 552//197 554//198 553//198 551//197
f 554//198 556//199 555//199 553//198
f 556//199 558//200 557//200 555//199
f 558//200 560//201 559//201 557//200
f 560//201 562//202 561//202 559//201
f 562//202 564//203 563//203 561//202
f 564//203 566//204 565//204 563//203
f 566//204 568//205 567//205 565//204
f 568//205 570//206 569//206 567//205
f 570//206 572//207 571//207 569//206
f 572//207 574//208 573//208 571//207
f 574//208 576//209 575//209 573//208
f 576//209 578//210 577//210 575//209
f 578//210 580//211 579//211 577//210
f 580//211 582//212 581//212 579//211
f 582//212 584//213 583//213 581//212
f 584//213 586//214 585//214 583//213
f 586//214 588//215 587//215 585//214
f 588//215 590//216 589//216 587//215
f 590//216 592//217 591//217 589//216
f 592//217 594//218 593//218 591//217
f 594//218 596//219 595//219 593//218
f 596//219 598//220 597//220 595//219
f 598//220 600//221 599//221 597//220
f 600//221 602//222 601//222 599//221
f 602//222 604//223 603//223 601//222
f 604//223 606//224 605//224 603//223
f 606//224 608//225 607//225 605//224
f 608//225 610//226 609//226 607//225
f 610//226 612//227 611//227 609//226
f 612//227 614//228 613//228 611//227
f 614//228 616//229 615//229 613//228
f 616//229 618//230 617//230 615//229
f 618//230 620//180 619//180 617//230
f 620//180 622//181 621//181 619//180
f 622//181 624//231 623//231 621//181
f 624//231 470//156 469//156 623//231
